PCBNEW-LibModule-V1  2022-04-01 21:10:47
# encoding utf-8
Units mm
$INDEX
SOT95P280X135-6N
$EndINDEX
$MODULE SOT95P280X135-6N
Po 0 0 0 15 62475c47 00000000 ~~
Li SOT95P280X135-6N
Cd DW01-P
Kw Integrated Circuit
Sc 0
At SMD
AR 
Op 0 0 0
T0 0 0 1.27 1.27 0 0.254 N V 21 N "IC**"
T1 0 0 1.27 1.27 0 0.254 N I 21 N "SOT95P280X135-6N"
DS -2.1 -1.75 2.1 -1.75 0.05 24
DS 2.1 -1.75 2.1 1.75 0.05 24
DS 2.1 1.75 -2.1 1.75 0.05 24
DS -2.1 1.75 -2.1 -1.75 0.05 24
DS -0.8 -1.425 0.8 -1.425 0.1 24
DS 0.8 -1.425 0.8 1.425 0.1 24
DS 0.8 1.425 -0.8 1.425 0.1 24
DS -0.8 1.425 -0.8 -1.425 0.1 24
DS -0.8 -0.475 0.15 -1.425 0.1 24
DS -0.3 -1.425 0.3 -1.425 0.2 21
DS 0.3 -1.425 0.3 1.425 0.2 21
DS 0.3 1.425 -0.3 1.425 0.2 21
DS -0.3 1.425 -0.3 -1.425 0.2 21
DS -1.85 -1.625 -0.65 -1.625 0.2 21
$PAD
Po -1.25 -0.95
Sh "1" R 0.65 1.2 0 0 900
At SMD N 00888000
Ne 0 ""
$EndPAD
$PAD
Po -1.25 0
Sh "2" R 0.65 1.2 0 0 900
At SMD N 00888000
Ne 0 ""
$EndPAD
$PAD
Po -1.25 0.95
Sh "3" R 0.65 1.2 0 0 900
At SMD N 00888000
Ne 0 ""
$EndPAD
$PAD
Po 1.25 0.95
Sh "4" R 0.65 1.2 0 0 900
At SMD N 00888000
Ne 0 ""
$EndPAD
$PAD
Po 1.25 0
Sh "5" R 0.65 1.2 0 0 900
At SMD N 00888000
Ne 0 ""
$EndPAD
$PAD
Po 1.25 -0.95
Sh "6" R 0.65 1.2 0 0 900
At SMD N 00888000
Ne 0 ""
$EndPAD
$EndMODULE SOT95P280X135-6N
$EndLIBRARY
